<?xml version="1.0" encoding="UTF-8"?>
<svg width="24px" height="22px" viewBox="0 0 24 22" version="1.1" xmlns="http://www.w3.org/2000/svg" xmlns:xlink="http://www.w3.org/1999/xlink">
    <title>BD1B6B5C-0250-45CC-BBC0-E2D6E44D8AA9</title>
    <g id="Screens" stroke="none" stroke-width="1" fill="none" fill-rule="evenodd">
        <g id="Project-FIles-Copy" transform="translate(-176.000000, -517.000000)">
            <g id="Icon/file/excel" transform="translate(176.000000, 517.000000)">
                <g id="Group-2" transform="translate(4.000000, 1.000000)">
                    <g id="pdf" fill-rule="nonzero">
                        <path d="M2.78612717,0 C2.10260116,0 1.5433526,0.5625 1.5433526,1.25 L1.5433526,18.75 C1.5433526,19.4375 2.10260116,20 2.78612717,20 L15.2138728,20 C15.8973988,20 16.4566474,19.4375 16.4566474,18.75 L16.4566474,5 L11.4855491,0 L2.78612717,0 Z" id="Path" fill="#E2E5E7"></path>
                        <path d="M12.7283237,4.97109827 L16.4566474,4.97109827 L11.4855491,0 L11.4855491,3.7283237 C11.4855491,4.41184971 12.0447977,4.97109827 12.7283237,4.97109827 Z" id="Path" fill="#B9B8B8"></path>
                        <path d="M12.9132948,16.8882466 C12.9132948,17.232659 12.6336705,17.5144509 12.2919075,17.5144509 L0.621387283,17.5144509 C0.279624277,17.5144509 0,17.232659 0,16.8882466 L0,11.6262042 C0,11.2817919 0.279624277,11 0.621387283,11 L12.2919075,11 C12.6336705,11 12.9132948,11.2817919 12.9132948,11.6262042 L12.9132948,16.8882466 Z" id="Path" fill="#FF4500"></path>
                    </g>
                    <text id="PDF" font-family="Montserrat-Bold, Montserrat" font-size="5" font-weight="bold" letter-spacing="-0.0595238095" fill="#FFFFFF">
                        <tspan x="1" y="16">PDF</tspan>
                    </text>
                </g>
            </g>
        </g>
    </g>
</svg>